module code.cryptopower.dev/group/cryptopower

go 1.19

require (
	decred.org/dcrwallet/v2 v2.0.11
	gioui.org v0.0.0-20230118222818-e0cf570339bd
	github.com/JohannesKaufmann/html-to-markdown v1.2.1
	github.com/PuerkitoBio/goquery v1.6.1
	github.com/ararog/timeago v0.0.0-20160328174124-e9969cf18b8d
	github.com/asdine/storm v0.0.0-20190216191021-fe89819f6282
	github.com/btcsuite/btcd v0.23.4
	github.com/btcsuite/btcd/btcutil v1.1.3
	github.com/btcsuite/btcd/chaincfg/chainhash v1.0.1
	github.com/btcsuite/btclog v0.0.0-20170628155309-84c8d2346e9f
	github.com/btcsuite/btcwallet v0.16.5
	github.com/btcsuite/btcwallet/walletdb v1.4.0
	github.com/btcsuite/btcwallet/wtxmgr v1.5.0
	github.com/decred/dcrd/addrmgr/v2 v2.0.1
	github.com/decred/dcrd/blockchain/stake/v4 v4.0.0
	github.com/decred/dcrd/blockchain/standalone/v2 v2.1.0 // indirect
	github.com/decred/dcrd/chaincfg/chainhash v1.0.3
	github.com/decred/dcrd/chaincfg/v3 v3.1.2-0.20230430213532-8f3e24955554
	github.com/decred/dcrd/connmgr/v3 v3.1.0
	github.com/decred/dcrd/dcrjson/v4 v4.0.0 // indirect
	github.com/decred/dcrd/dcrutil/v4 v4.0.0
	github.com/decred/dcrd/gcs/v3 v3.0.0
	github.com/decred/dcrd/hdkeychain/v3 v3.1.0
	github.com/decred/dcrd/rpc/jsonrpc/types/v3 v3.0.0
	github.com/decred/dcrd/txscript/v4 v4.0.0
	github.com/decred/dcrd/wire v1.5.0
	github.com/decred/dcrdata/v7 v7.0.0-20211216152310-365c9dc820eb
	github.com/decred/politeia v1.4.0
	github.com/decred/slog v1.2.0
	github.com/dgraph-io/badger v1.6.2
	github.com/gen2brain/beeep v0.0.0-20220402123239-6a3042f4b71a
	github.com/gomarkdown/markdown v0.0.0-20220817224203-2206187d3406
	github.com/jessevdk/go-flags v1.5.0
	github.com/jrick/logrotate v1.0.0
	github.com/kevinburke/nacl v0.0.0-20190829012316-f3ed23dbd7f8
	github.com/nxadm/tail v1.4.8
	github.com/onsi/ginkgo v1.15.0
	github.com/onsi/gomega v1.10.5
	github.com/yeqown/go-qrcode v1.5.1
	go.etcd.io/bbolt v1.3.7-0.20220130032806-d5db64bdbfde
	golang.org/x/crypto v0.7.0
	golang.org/x/exp v0.0.0-20230206171751-46f607a40771 // indirect
	golang.org/x/image v0.0.0-20220722155232-062f8c9fd539
	golang.org/x/sync v0.1.0
	golang.org/x/text v0.8.0
)

require (
	code.cryptopower.dev/group/blockexplorer v0.0.0-20230309085755-e79cfca9224c
	code.cryptopower.dev/group/instantswap v0.0.0-20230220075027-3f1f40be9f2a
	github.com/btcsuite/btcd/btcec/v2 v2.2.2
	github.com/btcsuite/btcwallet/wallet/txauthor v1.3.2
	github.com/btcsuite/btcwallet/wallet/txrules v1.2.0
	github.com/btcsuite/btcwallet/wallet/txsizes v1.2.3
	github.com/dcrlabs/neutrino-ltc v0.0.0-20221031001456-55ef06cefead
	github.com/decred/dcrd/dcrec/secp256k1/v4 v4.1.0
	github.com/decred/dcrd/dcrutil/v3 v3.0.0
	github.com/lightninglabs/neutrino v0.14.3-0.20221024182812-792af8548c14
	github.com/ltcsuite/ltcd v0.22.1-beta.0.20230329025258-1ea035d2e665
	github.com/ltcsuite/ltcd/btcec/v2 v2.1.0
	github.com/ltcsuite/ltcd/ltcutil v1.1.0
	github.com/ltcsuite/ltcwallet v0.13.1
	github.com/ltcsuite/ltcwallet/wallet/txauthor v1.1.0
	github.com/ltcsuite/ltcwallet/wallet/txrules v1.2.0
	github.com/ltcsuite/ltcwallet/wallet/txsizes v1.1.0
	github.com/ltcsuite/ltcwallet/walletdb v1.3.5
	github.com/ltcsuite/ltcwallet/wtxmgr v1.5.0
	golang.org/x/exp/shiny v0.0.0-20220827204233-334a2380cb91
)

require (
	decred.org/cspp/v2 v2.0.0 // indirect
	decred.org/dcrwallet v1.7.1
	github.com/companyzero/sntrup4591761 v0.0.0-20200131011700-2b0d299dbd22 // indirect
)

require (
	gioui.org/cpu v0.0.0-20210817075930-8d6a761490d2 // indirect
	gioui.org/shader v1.0.6 // indirect
	github.com/AndreasBriese/bbloom v0.0.0-20190825152654-46b345b51c96 // indirect
	github.com/DataDog/zstd v1.5.2 // indirect
	github.com/aead/siphash v1.0.1 // indirect
	github.com/agl/ed25519 v0.0.0-20170116200512-5312a6153412 // indirect
	github.com/andybalholm/cascadia v1.1.0 // indirect
	github.com/benoitkugler/textlayout v0.3.0 // indirect
	github.com/btcsuite/btcd/btcutil/psbt v1.1.5 // indirect
	github.com/btcsuite/go-socks v0.0.0-20170105172521-4720035b7bfd // indirect
	github.com/btcsuite/websocket v0.0.0-20150119174127-31079b680792 // indirect
	github.com/cespare/xxhash v1.1.0 // indirect
	github.com/davecgh/go-spew v1.1.1 // indirect
	github.com/dchest/siphash v1.2.3 // indirect
	github.com/decred/base58 v1.0.4 // indirect
	github.com/decred/dcrd/blockchain/stake/v3 v3.0.0 // indirect
	github.com/decred/dcrd/certgen v1.1.1 // indirect
	github.com/decred/dcrd/crypto/blake256 v1.0.1-0.20200921185235-6d75c7ec1199 // indirect
	github.com/decred/dcrd/crypto/ripemd160 v1.0.1 // indirect
	github.com/decred/dcrd/database/v2 v2.0.2 // indirect
	github.com/decred/dcrd/database/v3 v3.0.0 // indirect
	github.com/decred/dcrd/dcrec v1.0.1-0.20200921185235-6d75c7ec1199 // indirect
	github.com/decred/dcrd/dcrec/edwards/v2 v2.0.2 // indirect
	github.com/decred/dcrd/dcrec/secp256k1/v3 v3.0.0 // indirect
	github.com/decred/dcrd/gcs/v2 v2.1.0 // indirect
	github.com/decred/dcrd/lru v1.1.1 // indirect
	github.com/decred/dcrd/txscript/v3 v3.0.0 // indirect
	github.com/decred/dcrtime v0.0.0-20191018193024-8d8b4ef0458e // indirect
	github.com/decred/go-socks v1.1.0 // indirect
	github.com/dgraph-io/ristretto v0.0.2 // indirect
	github.com/dustin/go-humanize v1.0.0 // indirect
	github.com/fogleman/gg v1.3.0 // indirect
	github.com/fsnotify/fsnotify v1.6.0 // indirect
	github.com/go-text/typesetting v0.0.0-20221214153724-0399769901d5 // indirect
	github.com/go-toast/toast v0.0.0-20190211030409-01e6764cf0a4 // indirect
	github.com/godbus/dbus/v5 v5.1.0 // indirect
	github.com/golang/freetype v0.0.0-20170609003504-e2365dfdc4a0 // indirect
	github.com/golang/protobuf v1.5.2 // indirect
	github.com/golang/snappy v0.0.5-0.20220116011046-fa5810519dcb // indirect
	github.com/google/go-cmp v0.5.9 // indirect
	github.com/google/trillian v1.4.1 // indirect
	github.com/google/uuid v1.3.0 // indirect
	github.com/gorilla/schema v1.1.0 // indirect
	github.com/gorilla/websocket v1.5.0 // indirect
	github.com/h2non/go-is-svg v0.0.0-20160927212452-35e8c4b0612c // indirect
	github.com/jrick/bitset v1.0.0 // indirect
	github.com/jrick/wsrpc/v2 v2.3.5 // indirect
	github.com/kkdai/bstream v1.0.0 // indirect
	github.com/kr/pretty v0.3.1 // indirect
	github.com/lightninglabs/gozmq v0.0.0-20191113021534-d20a764486bf // indirect
	github.com/lightningnetwork/lnd/clock v1.0.1 // indirect
	github.com/lightningnetwork/lnd/queue v1.0.1 // indirect
	github.com/lightningnetwork/lnd/ticker v1.0.0 // indirect
	github.com/lightningnetwork/lnd/tlv v1.0.2 // indirect
	github.com/ltcsuite/lnd/clock v0.0.0-20200822020009-1a001cbb895a // indirect
	github.com/ltcsuite/lnd/queue v1.0.3 // indirect
	github.com/ltcsuite/lnd/ticker v1.0.1 // indirect
	github.com/ltcsuite/ltcd/ltcutil/psbt v1.1.0-1 // indirect
	github.com/ltcsuite/neutrino v0.13.2 // indirect
	github.com/marcopeereboom/sbox v1.1.0 // indirect
	github.com/nu7hatch/gouuid v0.0.0-20131221200532-179d4d0c4d8d // indirect
	github.com/pkg/errors v0.9.1 // indirect
	github.com/syndtr/goleveldb v1.0.1-0.20210819022825-2ae1ddf74ef7 // indirect
	github.com/tadvi/systray v0.0.0-20190226123456-11a2b8fa57af // indirect
	github.com/yeqown/reedsolomon v1.0.0 // indirect
	golang.org/x/net v0.8.0 // indirect
	golang.org/x/sys v0.6.0 // indirect
	golang.org/x/term v0.6.0 // indirect
	google.golang.org/protobuf v1.28.1 // indirect
	gopkg.in/check.v1 v1.0.0-20201130134442-10cb98267c6c // indirect
	gopkg.in/tomb.v1 v1.0.0-20141024135613-dd632973f1e7 // indirect
	gopkg.in/yaml.v2 v2.4.0 // indirect
)

// Older versions of github.com/lib/pq are required by politeia (v1.9.0)
// and dcrdex (v1.10.3) but only v1.10.4 and above can be compiled for
// the android OS using gomobile. This replace can be removed once any
// of those projects update their github.com/lib/pq dependency.
replace github.com/lib/pq => github.com/lib/pq v1.10.4
